<?xml version="1.0" encoding="UTF-8"?>
<svg width="318px" height="327px" viewBox="0 0 318 327" version="1.1" xmlns="http://www.w3.org/2000/svg" xmlns:xlink="http://www.w3.org/1999/xlink">
    <!-- Generator: Sketch 48.1 (47250) - http://www.bohemiancoding.com/sketch -->
    <title>illustrasjon-5-hjelpen-er-aldri</title>
    <desc>Created with Sketch.</desc>
    <defs></defs>
    <g id="Landingsside-master" stroke="none" stroke-width="1" fill="none" fill-rule="evenodd" transform="translate(-225.000000, -3024.000000)">
        <g id="illustrasjon-5-hjelpen-er-aldri" transform="translate(225.000000, 3024.000000)">
            <path d="M139.021822,285.871884 C149.81509,285.871884 159.176166,286.357936 168.914402,287.024133 C179.009413,287.714122 187.70451,288.562164 196.107391,289.850371 C204.59352,291.150475 215.806424,291.916941 221.982015,293.703096 C228.096445,295.472257 239.766359,296.617708 243.043585,298.74206 C246.205284,300.793335 244.740811,304.12262 244.740811,306.394827 C244.740811,308.667034 241.932488,311.166972 238.770789,313.218247 C235.493563,315.344298 223.494058,316.610412 217.379628,318.379573 C211.204037,320.167428 206.871778,322.298578 198.385649,323.598682 C189.984467,324.88519 180.407628,325.981355 170.314316,326.671345 C160.57608,327.337542 149.81509,326.78521 139.021822,326.78521 C128.228553,326.78521 118.921843,326.396029 109.183606,325.729832 C99.0902946,325.039842 88.6521011,324.713542 80.2509183,323.427034 C71.7647892,322.126931 67.8011978,320.019573 61.6256065,318.233418 C55.5111763,316.464257 47.9747462,314.972112 44.6958215,312.84776 C41.5341226,310.796485 43.893929,308.667034 43.893929,306.394827 C43.893929,304.12262 45.1766172,302.241293 48.3383161,300.190019 C51.6155419,298.065666 56.219628,296.434164 62.3340581,294.665003 C68.5096495,292.878848 70.7607247,290.372112 79.2451548,289.072008 C87.6480366,287.783801 99.4946387,288.011532 109.587951,287.321542 C119.327886,286.657045 128.228553,285.871884 139.021822,285.871884" id="Fill-1" fill="#EAE7FA"></path>
            <path d="M95.2322065,102.937617 C73.8087656,89.7717306 45.7714108,96.4710881 32.6098409,117.899855 C19.448271,139.330321 26.1437333,167.37687 47.5671742,180.542756 C68.9906151,193.710342 97.0279699,187.010984 110.18954,165.580518 C123.352809,144.150052 116.655647,116.103503 95.2322065,102.937617" id="Fill-3" fill="#B7D5FF"></path>
            <path d="M158.772671,263.705372 C160.74852,274.63474 160.364563,293.56017 158.840628,308.303175 C164.543918,309.441828 170.631166,308.756937 175.219961,307.806926" id="Stroke-5" stroke="#001673" stroke-width="5.10000014" stroke-linecap="round"></path>
            <path d="M102.228039,251.350989 L37.3681892,121.138388 C24.3527269,95.471113 38.3841462,70.582201 58.0373075,60.1439834 C80.5837376,49.0089782 107.88206,58.266056 119.013415,80.8198798 L183.873265,211.030781 C199.863544,234.843921 178.61849,265.171175 163.204146,272.026885 C140.657716,283.16189 113.359394,273.904812 102.228039,251.350989 Z" id="Fill-7" fill="#44BDA2"></path>
            <path d="M131.064738,261.376742 C136.715361,276.14354 134.03106,291.127872 124.151813,305.43411 C129.60706,307.453094 135.726587,307.73011 140.407125,307.510877" id="Stroke-9" stroke="#001673" stroke-width="5.10000014" stroke-linecap="round"></path>
            <path d="M74.8218344,74.9695834 C64.8066731,72.7211689 61.9032108,85.696713 72.4892108,89.2299358" id="Stroke-11" stroke="#001673" stroke-width="5.10000014" stroke-linecap="round"></path>
            <path d="M69.3334581,99.3394736 C58.4858237,95.5377326 52.0502968,108.684924 62.0858452,112.852054" id="Stroke-13" stroke="#001673" stroke-width="5.10000014" stroke-linecap="round"></path>
            <path d="M95.3375398,96.192713 C98.3514323,107.099988 89.7022065,115.143635 80.7811527,113.182433" id="Stroke-15" stroke="#001673" stroke-width="5.10000014" stroke-linecap="round"></path>
            <path d="M267.755125,117.88235 C278.723383,116.150578 296.460157,109.556589 309.874867,103.265107 C312.829297,108.276879 314.186738,114.253956 314.800049,118.90034" id="Stroke-17" stroke="#001673" stroke-width="5.10000014" stroke-linecap="round"></path>
            <path d="M281.928065,119.075217 C291.540581,95.8331026 280.49757,69.1988228 257.264774,59.5831544 L123.083699,3.47136166 C99.8509032,-6.14430674 73.2236559,4.90232539 63.6111398,28.1427399 C53.9986237,51.3848539 65.0416344,78.0208332 88.2744301,87.6348021 L222.455505,143.746595 C245.688301,153.362263 272.315548,142.317331 281.928065,119.075217" id="Fill-19" fill="#B7D5FF"></path>
            <path d="M272.754041,86.1074777 C286.797353,78.8489907 294.763611,65.8802446 296.911052,48.6254052 C302.325525,50.7497575 307.077417,54.6194777 310.424299,57.8994777" id="Stroke-21" stroke="#001673" stroke-width="5.10000014" stroke-linecap="round"></path>
            <path d="M115.792594,33.0416663 C115.440916,44.9958218 102.128142,48.8774383 101.382314,34.0511585" id="Stroke-23" stroke="#001673" stroke-width="5.10000014" stroke-linecap="round"></path>
            <path d="M91.0288968,36.2606549 C91.0798645,49.1240332 77.863929,54.2632663 76.9108323,42.2343337" id="Stroke-25" stroke="#001673" stroke-width="5.10000014" stroke-linecap="round"></path>
            <path d="M103.823839,70.5055544 C108.997065,67.823772 113.067688,63.0822176 114.936505,57.560601" id="Stroke-27" stroke="#001673" stroke-width="5.10000014" stroke-linecap="round"></path>
            <path d="M25.3829548,157.689654 L155.552869,92.8085347 C187.913987,69.3794777 212.686009,100.979644 216.527277,113.484431 C227.658632,136.038255 218.404589,163.347229 195.858159,174.480535 L65.6899441,239.361654 C42.1241591,254.809944 14.049428,236.705364 4.71383656,218.685758 C-6.41581935,196.131934 2.83822366,168.824659 25.3829548,157.689654 Z" id="Fill-29" fill="#44BDA2"></path>
            <path d="M127.383168,154.317032 C138.227404,151.934359 180.651254,129.706835 190.161834,83.482628" id="Stroke-31" stroke="#001673" stroke-width="5.10000014" stroke-linecap="round"></path>
            <path d="M156.186058,103.732464 C132.953262,94.1167959 106.326015,105.163428 96.7134989,128.403842 C87.1009828,151.645956 98.1439935,178.280236 121.376789,187.895905 C144.611284,197.511573 171.236832,186.46664 180.849348,163.224526 C190.461865,139.984112 179.420553,113.348133 156.186058,103.732464" id="Fill-33" fill="#A2C9FF"></path>
            <path d="M173.177854,60.1681161 C175.061961,71.1144788 170.486757,118.80024 131.278972,145.047038" id="Stroke-35" stroke="#001673" stroke-width="5.10000014" stroke-linecap="round"></path>
        </g>
    </g>
</svg>